# isql -Usa -Psybase -SLOCALHOST -w 200 -i /root/Desktop/changedata.sql 
 
select datachange('authors',NULL,NULL) as authors
 authors                     
 --------------------------- 
                    0.000000 
 
select datachange('publishers',NULL,NULL) as publishers
 publishers                  
 --------------------------- 
                    0.000000 
 
select datachange('titles',NULL,NULL) as titles
 titles                      
 --------------------------- 
                    0.000000 
 
select datachange('roysched',NULL,NULL) as roysched
 roysched                    
 --------------------------- 
                    0.000000 
 
select datachange('stores',NULL,NULL) as stores
 stores                      
 --------------------------- 
                    0.000000 
 
select datachange('sales',NULL,NULL) as sales
 sales                       
 --------------------------- 
                    0.000000 
 
select datachange('store_employees',NULL,NULL) as store_employees
 store_employees             
 --------------------------- 
                    0.000000 
 
select datachange('salesdetail',NULL,NULL) as salesdetail
 salesdetail                 
 --------------------------- 
                    0.000000 
 
select datachange('titleauthor',NULL,NULL) as titleauthor
 titleauthor                 
 --------------------------- 
                    0.000000 
 
select datachange('discounts',NULL,NULL) as discounts
 discounts                   
 --------------------------- 
                  100.000000 
 
select datachange('blurbs',NULL,NULL) as blurbs
 blurbs                      
 --------------------------- 
                  100.000000 
